<!-- <svg version="1.1" id="L5" xmlns="http://www.w3.org/2000/svg" xmlns:xlink="http://www.w3.org/1999/xlink" x="0px" y="0px" viewBox="0 0 100 100" enable-background="new 0 0 0 0" xml:space="preserve"><circle fill="#fff" stroke="none" cx="6" cy="50" r="6"><animateTransform attributeName="transform" dur="1s" type="translate" values="0 15 ; 0 -15; 0 15" repeatCount="indefinite" begin="0.1"></animateTransform></circle><circle fill="#fff" stroke="none" cx="30" cy="50" r="6"><animateTransform attributeName="transform" dur="1s" type="translate" values="0 10 ; 0 -10; 0 10" repeatCount="indefinite" begin="0.2"></animateTransform></circle><circle fill="#fff" stroke="none" cx="54" cy="50" r="6"><animateTransform attributeName="transform" dur="1s" type="translate" values="0 5 ; 0 -5; 0 5" repeatCount="indefinite" begin="0.3"></animateTransform></circle></svg> -->
<!-- <svg version="1.1" id="L4" xmlns="http://www.w3.org/2000/svg" xmlns:xlink="http://www.w3.org/1999/xlink" x="0px" y="0px" viewBox="0 0 100 100" enable-background="new 0 0 0 0" xml:space="preserve"><circle fill="#1890ff" stroke="none" cx="6" cy="50" r="6"><animate attributeName="opacity" dur="1s" values="0;1;0" repeatCount="indefinite" begin="0.1"></animate></circle><circle fill="#1890ff" stroke="none" cx="26" cy="50" r="6"><animate attributeName="opacity" dur="1s" values="0;1;0" repeatCount="indefinite" begin="0.2"></animate></circle><circle fill="#1890ff" stroke="none" cx="46" cy="50" r="6"><animate attributeName="opacity" dur="1s" values="0;1;0" repeatCount="indefinite" begin="0.3"></animate></circle></svg> -->


<svg version="1.1" id="L4" xmlns="http://www.w3.org/2000/svg" xmlns:xlink="http://www.w3.org/1999/xlink" x="0px" y="0px" viewBox="0 0 100 100" enable-background="new 0 0 0 0" xml:space="preserve">
  <circle fill="#1890ff" stroke="none" cx="15" cy="50" r="25">
    <animate attributeName="opacity" dur="1s" values="0;1;0" repeatCount="indefinite" begin="0.1"></animate>
  </circle>
  <circle fill="#1890ff" stroke="none" cx="75" cy="50" r="25">
    <animate attributeName="opacity" dur="1s" values="0;1;0" repeatCount="indefinite" begin="0.2"></animate>
  </circle>
  <circle fill="#1890ff" stroke="none" cx="135" cy="50" r="25">
    <animate attributeName="opacity" dur="1s" values="0;1;0" repeatCount="indefinite" begin="0.3"></animate>
  </circle>
    <circle fill="#1890ff" stroke="none" cx="195" cy="50" r="25">
    <animate attributeName="opacity" dur="1s" values="0;1;0" repeatCount="indefinite" begin="0.4"></animate>
  </circle>
    <circle fill="#1890ff" stroke="none" cx="255" cy="50" r="25">
    <animate attributeName="opacity" dur="1s" values="0;1;0" repeatCount="indefinite" begin="0.5"></animate>
  </circle>
</svg>